<?xml version="1.0" encoding="UTF-8" standalone="no"?>
<svg
   xmlns:dc="http://purl.org/dc/elements/1.1/"
   xmlns:cc="http://creativecommons.org/ns#"
   xmlns:rdf="http://www.w3.org/1999/02/22-rdf-syntax-ns#"
   xmlns:svg="http://www.w3.org/2000/svg"
   xmlns="http://www.w3.org/2000/svg"
   id="svg8"
   version="1.1"
   viewBox="0 0 115 115"
   height="115mm"
   width="115mm">
  <defs
     id="defs2" />
  <metadata
     id="metadata5">
    <rdf:RDF>
      <cc:Work
         rdf:about="">
        <dc:format>image/svg+xml</dc:format>
        <dc:type
           rdf:resource="http://purl.org/dc/dcmitype/StillImage" />
        <dc:title></dc:title>
      </cc:Work>
    </rdf:RDF>
  </metadata>
  <g
     transform="translate(-43.808435,-77.218259)"
     id="layer1">
    <g
       transform="matrix(0.98165594,0,0,0.98165594,11.230215,2.2876926)"
       id="g1115">
      <g
         id="g911"
         transform="rotate(30,77.234983,99.665981)">
        <path
           id="path822"
           d="M 90.05445,82.364481 A 10.445886,10.445886 0 0 0 79.608576,92.810355 10.445886,10.445886 0 0 0 90.05445,103.25623 10.445886,10.445886 0 0 0 100.50032,92.810355 10.445886,10.445886 0 0 0 90.05445,82.364481 Z m 0,4.618323 a 5.8277058,5.8277058 0 0 1 5.827551,5.827551 5.8277058,5.8277058 0 0 1 -5.827551,5.827551 5.8277058,5.8277058 0 0 1 -5.827551,-5.827551 5.8277058,5.8277058 0 0 1 5.827551,-5.827551 z"
           style="fill:#0000ff;fill-opacity:1;stroke:none;stroke-width:2;stroke-miterlimit:4;stroke-dasharray:none;stroke-opacity:1" />
        <path
           id="path880"
           d="m 94.562702,105.04983 h -8.466148 v 47.45912 c 0,3.06908 2.269784,5.54023 5.090128,5.54023 h 3.37602 z"
           style="fill:#0000ff;fill-opacity:1;stroke:none;stroke-width:1.32765663;stroke-miterlimit:4;stroke-dasharray:none;stroke-opacity:1" />
        <path
           id="path846"
           d="m 91.186682,67.059908 c -2.820344,0 -5.090128,2.470637 -5.090128,5.539717 v 8.31473 h 8.466148 V 67.059908 Z"
           style="fill:#0000ff;fill-opacity:1;stroke:none;stroke-width:1.32765663;stroke-miterlimit:4;stroke-dasharray:none;stroke-opacity:1" />
        <path
           id="rect856"
           d="m 89.944554,159.49213 v 20.47425 l 4.618323,16.56549 v -37.03974 z"
           style="fill:#0000ff;fill-opacity:1;stroke:none;stroke-width:1.88588476;stroke-miterlimit:4;stroke-dasharray:none;stroke-opacity:1" />
      </g>
      <path
         style="fill:#0000ff;fill-opacity:1;stroke:none;stroke-width:1.32765663;stroke-miterlimit:4;stroke-dasharray:none;stroke-opacity:1"
         d="m 93.973693,112.81855 7.331897,-4.23307 23.72956,41.1008 c 1.53454,2.6579 0.80443,5.93287 -1.63806,7.34305 l -2.92372,1.68801 z"
         id="path880-1" />
      <path
         style="fill:#0000ff;fill-opacity:1;stroke:none;stroke-width:1.32765663;stroke-miterlimit:4;stroke-dasharray:none;stroke-opacity:1"
         d="m 77.902451,78.230305 c 2.44249,-1.410172 5.643499,-0.40543 7.178039,2.252471 l 4.157365,7.200768 -7.331899,4.233074 -6.927224,-11.998303 z"
         id="path846-5" />
      <path
         style="fill:#0000ff;fill-opacity:1;stroke:none;stroke-width:1.88588476;stroke-miterlimit:4;stroke-dasharray:none;stroke-opacity:1"
         d="m 125.19428,157.65789 10.23712,17.73122 4.28316,16.6553 -18.51987,-32.07736 z"
         id="rect856-1" />
      <rect
         style="fill:#0000ff;fill-opacity:1;stroke:none;stroke-width:1.694556;stroke-miterlimit:4;stroke-dasharray:none;stroke-opacity:1"
         id="rect944"
         width="95.88224"
         height="4.4450221"
         x="43.832321"
         y="136.14436" />
      <rect
         style="fill:#0000ff;fill-opacity:1;stroke:none;stroke-width:0.84300148;stroke-miterlimit:4;stroke-dasharray:none;stroke-opacity:1"
         id="rect944-7"
         width="23.729195"
         height="4.4450221"
         x="52.513344"
         y="141.9071" />
      <rect
         style="fill:#0000ff;fill-opacity:1;stroke:none;stroke-width:1.03629184;stroke-miterlimit:4;stroke-dasharray:none;stroke-opacity:1"
         id="rect944-7-4"
         width="35.858372"
         height="4.4450221"
         x="78.888374"
         y="141.9071" />
      <rect
         style="fill:#0000ff;fill-opacity:1;stroke:none;stroke-width:0.69793504;stroke-miterlimit:4;stroke-dasharray:none;stroke-opacity:1"
         id="rect944-7-4-1"
         width="16.265085"
         height="4.4450221"
         x="117.39258"
         y="141.9071" />
      <rect
         style="fill:#0000ff;fill-opacity:1;stroke:none;stroke-width:0.52238804;stroke-miterlimit:4;stroke-dasharray:none;stroke-opacity:1"
         id="rect944-7-9"
         width="9.1119814"
         height="4.4450221"
         x="67.441559"
         y="147.43135" />
      <rect
         style="fill:#0000ff;fill-opacity:1;stroke:none;stroke-width:0.71767366;stroke-miterlimit:4;stroke-dasharray:none;stroke-opacity:1"
         id="rect944-7-4-7"
         width="17.198099"
         height="4.4450221"
         x="97.548653"
         y="147.32446" />
      <rect
         style="fill:#0000ff;fill-opacity:1;stroke:none;stroke-width:0.77014214;stroke-miterlimit:4;stroke-dasharray:none;stroke-opacity:1"
         id="rect944-7-4-14"
         width="19.804691"
         height="4.4450221"
         x="43.832321"
         y="129.75475" />
      <rect
         style="fill:#0000ff;fill-opacity:1;stroke:none;stroke-width:0.64443415;stroke-miterlimit:4;stroke-dasharray:none;stroke-opacity:1"
         id="rect944-7-4-14-3"
         width="13.867029"
         height="4.4450221"
         x="117.19971"
         y="129.75475" />
      <rect
         style="fill:#0000ff;fill-opacity:1;stroke:none;stroke-width:0.7463035;stroke-miterlimit:4;stroke-dasharray:none;stroke-opacity:1"
         id="rect944-7-4-7-2"
         width="18.59762"
         height="4.4450221"
         x="79.512024"
         y="129.75475" />
    </g>
  </g>
</svg>
